{
  "core": {
    "username": "root",
    "password": "12345678",
    "database" : "my_cryptos",
    "host": "mysql-5.7",
    "dialect" : "mysql",
    "logging": false,
    "migrationStorageTableName": "sequelize_meta",
    "seederStorage": "sequelize"
  }
}